<svg version="1.1" width="15" fill="#FF008A" id="Capa_1" xmlns="http://www.w3.org/2000/svg" xmlns:xlink="http://www.w3.org/1999/xlink" x="0px" y="0px"
	 viewBox="0 0 491.1 491.1" style="enable-background:new 0 0 491.1 491.1;" xml:space="preserve">
<g>
	<path d="M111.85,208.25l192.8-192.8c20.6-20.6,54-20.6,74.6,0s20.6,54,0,74.6l-155.5,155.5l155.5,155.5c20.6,20.6,20.6,54,0,74.6
		s-54,20.6-74.6,0l-192.8-192.8C91.25,262.25,91.25,228.85,111.85,208.25z"/>
</g>
</svg>
